%YAML 1.1
%TAG !u! tag:unity3d.com,2011:
--- !u!114 &11400000
MonoBehaviour:
  m_ObjectHideFlags: 0
  m_CorrespondingSourceObject: {fileID: 0}
  m_PrefabInstance: {fileID: 0}
  m_PrefabAsset: {fileID: 0}
  m_GameObject: {fileID: 0}
  m_Enabled: 1
  m_EditorHideFlags: 0
  m_Script: {fileID: 11500000, guid: dedcd43e19ab3ce4f9aed47871c52715, type: 3}
  m_Name: ClipAreaTableAsset
  m_EditorClassIdentifier: 
  Indices:
  - ClipperIndex: 0
    ClipableIndices: 00000000
